<?xml version="1.0" encoding="UTF-8"?>
<Project>
   <description></description>
   <name>demo</name>
   <tag></tag>
   <UUID>6655a66b-33b1-4dcd-8962-708ad0fc4699</UUID>
   <migratedVersion>5.9.0</migratedVersion>
   <pageLoadTimeout>0</pageLoadTimeout>
   <projectFileLocation>C:\Users\iqbal\Katalon Studio\demo\demo.prj</projectFileLocation>
   <sourceContent>
      <sourceFolderList>
         <sourceFolderConfiguration>
            <url>Include/scripts/groovy</url>
         </sourceFolderConfiguration>
      </sourceFolderList>
      <systemFolderList>
         <systemFolderConfiguration>
            <url>Include/scripts/groovy</url>
         </systemFolderConfiguration>
         <systemFolderConfiguration>
            <url>Include/features</url>
         </systemFolderConfiguration>
         <systemFolderConfiguration>
            <url>Include/config</url>
         </systemFolderConfiguration>
      </systemFolderList>
   </sourceContent>
   <timeStampInProperties>false</timeStampInProperties>
   <type>WEBUI</type>
</Project>
